<?xml version="1.0" encoding="UTF-8"?>
<svg width="80px" height="71px" viewBox="0 0 80 71" version="1.1" xmlns="http://www.w3.org/2000/svg" xmlns:xlink="http://www.w3.org/1999/xlink">
    <!-- Generator: Sketch 63.1 (92452) - https://sketch.com -->
    <title>005-deer</title>
    <desc>Created with Sketch.</desc>
    <g id="Page-1" stroke="none" stroke-width="1" fill="none" fill-rule="evenodd">
        <g id="Group-Copy" transform="translate(-138.000000, -372.000000)" fill-rule="nonzero">
            <g id="Group-10" transform="translate(112.000000, 200.000000)">
                <g id="Group-9">
                    <g id="005-deer" transform="translate(26.399998, 172.799990)">
                        <path d="M17.8076141,37.6465881 C15.7773296,37.6465881 13.8613234,37.1066841 12.4130291,36.1259482 C10.9006837,35.1026651 10.0683253,33.7211869 10.0683253,32.236643 C10.0683253,31.9439866 10.3055889,31.706739 10.5982453,31.7065695 L25.0174438,31.7065695 C25.1580954,31.7065695 25.2929679,31.7625334 25.3923803,31.8620323 C25.4917928,31.9615312 25.5475174,32.0964522 25.5475174,32.2371038 C25.5475174,33.7218013 24.7146982,35.1031259 23.2028136,36.126409 C21.7542121,37.1066841 19.8382059,37.6465881 17.8076141,37.6465881 Z" id="Path_279" fill="#8C561F"></path>
                        <path d="M39.1117783,34.0190173 C27.1411172,34.0190173 17.4022638,24.3193319 17.4022638,12.3962867 C17.4022638,11.3104509 18.2825077,10.4302069 19.3683436,10.4302069 C20.4541794,10.4302069 21.3344233,11.3104509 21.3344234,12.3962867 C21.3344234,22.1548009 29.3093345,30.0939233 39.1116247,30.0939233 C48.9139149,30.0939233 56.8891333,22.1549545 56.8891333,12.3962867 C56.8891333,11.3104508 57.7693772,10.4302069 58.8552131,10.4302069 C59.9410489,10.4302069 60.8212929,11.3104508 60.8212929,12.3962867 C60.8212929,24.3191783 51.0825931,34.0190173 39.1117783,34.0190173 Z" id="Path_280" fill="#BFA083"></path>
                        <path d="M39.1117783,34.4950236 C36.0566746,34.4950236 33.2239837,32.9407454 31.1360992,30.1183457 C29.1800034,27.4745827 28.1028067,23.9910887 28.1028067,20.3094507 C28.1028067,19.2236148 28.9830506,18.3433709 30.0688865,18.3433709 C31.1547224,18.3433709 32.0349663,19.2236148 32.0349663,20.3094507 C32.0349663,23.1578088 32.8390622,25.8132453 34.29903,27.7865443 C35.6269019,29.5813601 37.3364697,30.5699296 39.1117783,30.5699296 C40.8870869,30.5699296 42.596962,29.5813601 43.9246802,27.7865443 C45.3846481,25.8132453 46.1888976,23.1576552 46.1888976,20.3094507 C46.1888976,19.2236148 47.0691415,18.3433709 48.1549774,18.3433709 C49.2408133,18.3433709 50.1210572,19.2236148 50.1210572,20.3094507 C50.1210572,23.9910887 49.0437069,27.4744291 47.0876111,30.1183457 C44.9997265,32.9407454 42.1671892,34.4950236 39.1117783,34.4950236 Z" id="Path_281" fill="#E2C3AA"></path>
                        <path d="M60.4160961,37.6465881 C58.3858115,37.6465881 56.4698053,37.1066841 55.0215111,36.1259482 C53.5093192,35.1026651 52.6768071,33.7211869 52.6768071,32.236643 C52.6768071,32.0960056 52.7324569,31.9610842 52.831845,31.8615808 C52.9312331,31.7620775 53.0660897,31.7061087 53.2067273,31.7061087 L67.6257721,31.7061087 C67.7664504,31.7061087 67.9013623,31.7620139 68.000808,31.8615172 C68.1002537,31.9610206 68.1559994,32.0959648 68.1559994,32.236643 C68.1559994,33.7213405 67.3231802,35.1026651 65.8112955,36.1259482 C64.3626941,37.1066841 62.4466879,37.6465881 60.4160961,37.6465881 Z" id="Path_282" fill="#8C561F"></path>
                        <path d="M17.577675,36.126409 C16.0654831,35.1031259 15.2331248,33.7216477 15.2331248,32.2371038 C15.2330433,32.0964522 15.2888493,31.9615312 15.3882618,31.8620323 C15.4876743,31.7625334 15.6225467,31.7065695 15.7631984,31.7065695 L10.5982453,31.7065695 C10.4575937,31.7065695 10.3227212,31.7625334 10.2233087,31.8620323 C10.1238962,31.9615312 10.0681717,32.0964522 10.0681717,32.2371038 C10.0681717,33.7218013 10.9006837,35.1031259 12.4128755,36.126409 C13.8611698,37.1066841 15.7767152,37.6470733 17.8074605,37.6470733 C18.677372,37.6488922 19.5443729,37.5465311 20.3899371,37.3421529 C19.3881116,37.1060568 18.4359974,36.6944568 17.577675,36.126409 L17.577675,36.126409 Z" id="Path_283" fill="#000000" opacity="0.1"></path>
                        <path d="M78.0656559,4.99645388 C77.2964738,4.23101006 76.0529,4.23245288 75.2854961,4.99967948 L73.8854323,6.40035773 C74.0939185,4.98174963 74.1987976,3.54983969 74.1992371,2.11599338 C74.1992371,1.03015749 73.3189932,0.149913584 72.2331573,0.149913584 C71.1473214,0.149913584 70.2670775,1.03015749 70.2670775,2.11599338 C70.2670775,17.543115 56.2910149,30.0937697 39.1120855,30.0937697 C21.9331561,30.0937697 7.95632557,17.5435758 7.95632557,2.11599338 C7.95632557,1.03015749 7.07608166,0.149913584 5.99024578,0.149913584 C4.90440989,0.149913584 4.02416598,1.03015749 4.02416598,2.11599338 C4.02448464,3.38556981 4.10657455,4.65380766 4.26992595,5.91283138 L3.35708125,4.99967948 C2.58878767,4.24751022 1.35853236,4.2528258 0.596767155,5.011606 C-0.164998052,5.7703862 -0.175143835,7.00061115 0.57400314,7.77185199 L6.31787454,13.5183346 C6.32002494,13.5200242 6.32171454,13.5217138 6.32371134,13.523557 C8.07306156,17.687499 10.7897845,21.503537 14.3723505,24.7415782 C20.990513,30.724144 29.7767393,34.0190173 39.1122391,34.0190173 C48.4477389,34.0190173 57.2342724,30.7242976 63.8521277,24.7415782 C67.1319228,21.8092077 69.7680022,18.2285707 71.5938741,14.2258161 C71.6590306,14.1756992 71.721096,14.121687 71.7797301,14.0640753 L78.0685743,7.77185199 C78.4369345,7.40379875 78.6431139,6.90426995 78.6431139,6.38354726 C78.6431139,5.86282456 78.4347893,5.36373163 78.0656559,4.99645388 Z" id="Path_284" fill="#E2C3AA"></path>
                        <path d="M54.0056008,31.7063844 L24.2178023,31.7063844 C23.593909,31.7033122 22.9943366,31.9481802 22.5509882,32.3871501 C22.1076398,32.8261201 21.8568333,33.4232327 21.8537449,34.047126 L21.8537449,47.3892815 C21.8537449,52.7058377 23.423844,57.3732804 26.5211876,61.2610496 C28.644861,63.9269309 31.5079647,66.2359995 35.0519771,68.1540025 L43.1714259,68.1540025 C46.7154383,66.2358459 49.5788492,63.9267773 51.7028298,61.2610496 C54.7995591,57.3732804 56.3701189,52.7055305 56.3701189,47.3892815 L56.3701189,34.047126 C56.3670308,33.4231524 56.1161609,32.8259697 55.6727127,32.3869865 C55.2292645,31.9480033 54.6295737,31.7031895 54.0056008,31.7063844 Z" id="Path_285" fill="#D69363"></path>
                        <path d="M31.6583391,61.2612032 C28.561149,57.373434 26.9907428,52.7056841 26.9907428,47.3894351 L26.9907428,34.0472796 C26.9972586,32.7481228 28.0556426,31.7001913 29.3548001,31.7065403 L24.2176487,31.7065403 C23.5937554,31.7034658 22.994183,31.9483338 22.5508346,32.3873037 C22.1074862,32.8262737 21.8566797,33.4233863 21.8535913,34.0472796 L21.8535913,47.3894351 C21.8535913,52.7059913 23.4236904,57.373434 26.521034,61.2612032 C28.6447074,63.9270845 31.5078111,66.2361531 35.0513627,68.1547705 L40.1885142,68.1547705 C36.6451162,66.2361531 33.7817053,63.9270845 31.6583391,61.2612032 Z" id="Path_286" fill="#000000" opacity="0.1"></path>
                        <path d="M35.0708699,69.5244215 C34.0987732,69.4798228 33.2466125,68.8606351 32.9038814,67.9498681 L30.4055776,60.2577345 C30.1476956,59.3192529 30.473231,58.3173404 31.2334815,57.7096644 L37.7730009,52.9560521 C38.5855872,52.4207406 39.6388911,52.4207406 40.4514774,52.9560521 L46.9908431,57.7099716 C47.7508509,58.3178155 48.076334,59.3195669 47.818747,60.2580417 L45.3205969,67.9500217 C44.9778288,68.8608069 44.1257255,69.4800736 43.1536083,69.5248823 L35.0708699,69.5248823 L35.0708699,69.5244215 Z" id="Path_287" fill="#A86D33"></path>
                        <path d="M36.284617,67.9497145 L33.7863133,60.2575809 C33.5284312,59.3190993 33.8539667,58.3171868 34.6142172,57.7095108 L40.8026069,53.2113352 L40.4514774,52.9560521 C39.6388911,52.4207406 38.5855872,52.4207406 37.7730009,52.9560521 L31.2334815,57.7099716 C30.4733698,58.3177436 30.1478642,59.3195639 30.4055776,60.2580417 L32.9038814,67.9501753 C33.246646,68.8609167 34.0987872,69.4800902 35.0708699,69.5247287 L38.4519128,69.5247287 C37.4796297,69.4800545 36.6273467,68.8606846 36.284617,67.9497145 L36.284617,67.9497145 Z" id="Path_288" fill="#000000" opacity="0.1"></path>
                        <g id="Group_44" transform="translate(29.951843, 44.515733)" fill="#5B330A">
                            <path d="M11.8471668,18.7808236 L10.3770613,18.7808236 L10.3770613,13.0762738 C10.3770613,12.4114538 9.83811823,11.8725108 9.17329824,11.8725108 C8.50847825,11.8725108 7.96953517,12.4114538 7.96953517,13.0762738 L7.96953517,18.7808236 L6.49958332,18.7808236 C6.06952017,18.7808236 5.67212542,19.0102595 5.45709383,19.3827051 C5.24206225,19.7551508 5.24206225,20.2140227 5.45709383,20.5864683 C5.67212542,20.9589139 6.06952017,21.1883498 6.49958332,21.1883498 L11.8471668,21.1883498 C12.5119867,21.1883498 13.0509297,20.6494067 13.0509297,19.9845867 C13.0509297,19.3197668 12.5119867,18.7808237 11.8471668,18.7808236 Z" id="Path_289"></path>
                            <path d="M8.49331111,14.6182641 C7.52121437,14.5736653 6.66905362,13.9544776 6.32632254,13.0437106 L5.91375298,11.7732852 C5.65584594,10.834757 5.98138041,9.83278732 6.7416569,9.22506144 L7.82115758,8.44062632 C8.63367195,7.90526099 9.68696614,7.90526099 10.4994805,8.44062632 L11.5791348,9.22536864 C12.3391122,9.83329985 12.6645318,10.835102 12.4068851,11.7735924 L11.9944691,13.0440178 C11.6516373,13.9547081 10.7995354,14.573853 9.82748057,14.6185713 L8.49331111,14.6185713 L8.49331111,14.6182641 Z" id="Path_290"></path>
                            <path d="M1.32372466,4.52136913 C0.658904674,4.52136913 0.119961587,3.98242604 0.119961587,3.31760605 L0.119961587,1.21036787 C0.119961587,0.545547885 0.658904674,0.00660479931 1.32372466,0.00660479931 C1.98854465,0.00660479931 2.52748774,0.545547885 2.52748774,1.21036787 L2.52748774,3.31775965 C2.52731813,3.98248452 1.98844955,4.52128434 1.32372466,4.52136913 L1.32372466,4.52136913 Z" id="Path_291"></path>
                            <path d="M15.6211184,4.52136913 C14.9562984,4.52136913 14.4173553,3.98242604 14.4173553,3.31760605 L14.4173553,1.21036787 C14.4173553,0.545547925 14.9562984,0.00660490078 15.6211184,0.00660490078 C16.2859383,0.00660490078 16.8248814,0.545547925 16.8248814,1.21036787 L16.8248814,3.31775965 C16.8247966,3.98251966 16.2858784,4.52136913 15.6211184,4.52136913 L15.6211184,4.52136913 Z" id="Path_292"></path>
                        </g>
                    </g>
                </g>
            </g>
        </g>
    </g>
</svg>